[
  {
    "objectID": "about.html",
    "href": "about.html",
    "title": "About",
    "section": "",
    "text": "About this site\n\n1 + 1\n\n[1] 2"
  },
  {
    "objectID": "index.html",
    "href": "index.html",
    "title": "awesome",
    "section": "",
    "text": "This is an awesome website. Another change."
  }
]